UF SUPER		ADMIN
BIO = R,E		BIO = R,E
PENG = C,R,U,D		PENG = C,R,E,D
ABSEN = R,E,D		ABSEN = R,E,D
UAS = R,E,D		UAS = R,E,D
UTS = R,E,D		UTS = R,E,D
JADWAL = C		JADWAL = C
SPP = R,E,D		SPP = R,E,D
+ SUPER = C,E,D		+ TAHUN = C
+ GURU = C,E,D		+ MAPEL
+ PEL = C,E,D

+ TAHUN = 
+ MAPEL = C,E,D		